/home/david/software/buscadorvuelosGit/src/main/java/es/udc/med/team04/buscadorvuelos/model/aeropuerto/AeropuertoDao.java
/home/david/software/buscadorvuelosGit/src/main/java/es/udc/med/team04/buscadorvuelos/model/util/DuplicateInstanceException.java
/home/david/software/buscadorvuelosGit/src/main/java/es/udc/med/team04/buscadorvuelos/model/util/GenericDaoHibernate.java
/home/david/software/buscadorvuelosGit/src/main/java/es/udc/med/team04/buscadorvuelos/model/controllers/ReservarVuelos.java
/home/david/software/buscadorvuelosGit/src/main/java/es/udc/med/team04/buscadorvuelos/model/reservaservice/ReservaServiceImpl.java
/home/david/software/buscadorvuelosGit/src/main/java/es/udc/med/team04/buscadorvuelos/model/avion/Avion.java
/home/david/software/buscadorvuelosGit/src/main/java/es/udc/med/team04/buscadorvuelos/model/reserva/ReservaDao.java
/home/david/software/buscadorvuelosGit/src/main/java/es/udc/med/team04/buscadorvuelos/model/avion/AvionDaoHibernate.java
/home/david/software/buscadorvuelosGit/src/main/java/es/udc/med/team04/buscadorvuelos/model/vuelo/VueloDao.java
/home/david/software/buscadorvuelosGit/src/main/java/es/udc/med/team04/buscadorvuelos/model/reserva/ReservaDaoHibernate.java
/home/david/software/buscadorvuelosGit/src/main/java/es/udc/med/team04/buscadorvuelos/model/controllers/CancelarReservas.java
/home/david/software/buscadorvuelosGit/src/main/java/es/udc/med/team04/buscadorvuelos/model/vueloservice/VueloService.java
/home/david/software/buscadorvuelosGit/src/main/java/es/udc/med/team04/buscadorvuelos/model/aeropuerto/AeropuertoDaoHibernate.java
/home/david/software/buscadorvuelosGit/src/main/java/es/udc/med/team04/buscadorvuelos/model/util/GenericDao.java
/home/david/software/buscadorvuelosGit/src/main/java/es/udc/med/team04/buscadorvuelos/model/controllers/BuscarVuelos.java
/home/david/software/buscadorvuelosGit/src/main/java/es/udc/med/team04/buscadorvuelos/model/avion/AvionDao.java
/home/david/software/buscadorvuelosGit/src/main/java/es/udc/med/team04/buscadorvuelos/model/util/InstanceNotFoundException.java
/home/david/software/buscadorvuelosGit/src/main/java/es/udc/med/team04/buscadorvuelos/model/util/InstanceException.java
/home/david/software/buscadorvuelosGit/src/main/java/es/udc/med/team04/buscadorvuelos/model/util/GlobalNames.java
/home/david/software/buscadorvuelosGit/src/main/java/es/udc/med/team04/buscadorvuelos/App.java
/home/david/software/buscadorvuelosGit/src/main/java/es/udc/med/team04/buscadorvuelos/model/vuelo/Vuelo.java
/home/david/software/buscadorvuelosGit/src/main/java/es/udc/med/team04/buscadorvuelos/model/reserva/Reserva.java
/home/david/software/buscadorvuelosGit/src/main/java/es/udc/med/team04/buscadorvuelos/model/aeropuerto/Aeropuerto.java
/home/david/software/buscadorvuelosGit/src/main/java/es/udc/med/team04/buscadorvuelos/model/reservaservice/ReservaService.java
/home/david/software/buscadorvuelosGit/src/main/java/es/udc/med/team04/buscadorvuelos/model/vueloservice/VueloServiceImpl.java
/home/david/software/buscadorvuelosGit/src/main/java/es/udc/med/team04/buscadorvuelos/model/vuelo/VueloDaoHibernate.java
